 _______  _______  _        _______ ___________________________          _______
(  ____ \(  ____ \( (    /|(  ____ \\__   __/\__   __/\__   __/|\     /|(  ___  )
| (    \/| (    \/|  \  ( || (    \/   ) (      ) (      ) (   | )   ( || (   ) |
| (_____ | (__    |   \ | || (_____    | |      | |      | |   | |   | || |   | |
(_____  )|  __)   | (\ \) |(_____  )   | |      | |      | |   ( (   ) )| |   | |
      ) || (      | | \   |      ) |   | |      | |      | |    \ \_/ / | |   | |
/\____) || (____/\| )  \  |/\____) |___) (___   | |   ___) (___  \   /  | (___) |
\_______)(_______/|/    )_)\_______)\_______/   )_(   \_______/   \_/   (_______)


${application.title} ${application.formatted-version}

Developed for Hackathon 2018
